Google Ads Data
…
Most common categories for age targeting

ggl_ads %>% 
  count(age_targeting, sort = T) %>% 
  mutate(perc = round(n/sum(n) * 100, 2))

## # A tibble: 48 x 3
##    age_targeting                                            n  perc
##    <chr>                                                <int> <dbl>
##  1 Not targeted                                        424622 73.1 
##  2 18-24, 25-34, 35-44, 45-54, 55-64, =65, Unknown age 127604 22.0 
##  3 25-34, 35-44, 45-54, 55-64                            9443  1.62
##  4 18-24, 25-34, 35-44, 45-54, 55-64, =65                3863  0.66
##  5 18-24, 25-34                                          2940  0.51
##  6 35-44, 45-54, 55-64, =65                              2714  0.47
##  7 35-44, 45-54, 55-64, =65, Unknown age                 1648  0.28
##  8 45-54, 55-64, =65                                     1152  0.2 
##  9 18-24, 25-34, 35-44, 45-54, 55-64                     1074  0.18
## 10 25-34, 35-44, 45-54                                    904  0.16
## # ... with 38 more rows

Most common categories for geo targeting

ggl_ads %>% 
  count(geo_targeting_included, sort = T) %>% 
  mutate(perc = round(n/sum(n) * 100, 2))

## # A tibble: 11,135 x 3
##    geo_targeting_included                                                n  perc
##    <chr>                                                             <int> <dbl>
##  1 United States                                                    137471 23.7 
##  2 Not targeted                                                      19256  3.31
##  3 Arizona                                                            5982  1.03
##  4 Iowa                                                               5930  1.02
##  5 Florida                                                            5818  1   
##  6 Slovakia                                                           4762  0.82
##  7 Michigan                                                           4758  0.82
##  8 North Carolina                                                     4394  0.76
##  9 Arizona, Florida, Georgia, Iowa, Michigan, Minnesota, North Car~   4244  0.73
## 10 Nevada                                                             4164  0.72
## # ... with 11,125 more rows
…
